{
  "agentFileNumber": "ACME123ABC",
  "lenderFileNumber": "BANK12345",
  "createdOn": "2019-08-23",
  "productRates": [
      {
        "name": "ALTA Lenders Policy",
        "type": "lenders",
        "policyAmount": 800000,
        "useSimultaneousRates": true,
        "useCommonEndorsements": true,
        "priorPolicyAmount": 250000,
        "priorPolicyEffectiveDate": "2019-05-09",
        "effectiveDate": "2019-05-10",
        "rate": 100
      },
      {
        "name": "ALTA Owner's Policy",
        "type": "owners",
        "policyAmount": 1100000,
        "useSimultaneousRates": true,
        "useCommonEndorsements": true,
        "priorPolicyEffectiveDate": "2019-05-09",
        "priorPolicyAmount": 250000,
        "effectiveDate": "2019-05-10",
        "rate": 50
      }
    ]
}
