{
  "agentFileNumber": "ACME123ABC",
  "lenderFileNumber": "BANK12345",
  "selectedAccountId": "0a9feeb3-41d5-11e9-92a8-0242ac1b0002",
  "selectedBranchId": "6a9feeb3-41d5-11e9-92a8-0242ac1b0555",
  "selectedUnderwriterId": "4e7cedbe-404c-11e9-9a44-0242ac170002",
  "transactionFileType": "Refinance",
  "propertyType": "Residential",
  "property": {
    "address": {
      "line1": "123 N. Street",
      "line2": "",
      "city": "Virginia Beach",
      "state": "VA",
      "zip": "12345",
      "county": "Princess Anne"
    }
  },
  "policiesRequested": [
    {
      "name": "ALTA Lenders Policy",
      "type": "lenders",
      "policyAmount": 800000,
      "useSimultaneousRates": true,
      "useCommonEndorsements": true,
      "priorPolicyAmount": 250000,
      "priorPolicyEffectiveDate": "2019-05-09",
      "effectiveDate": "2019-05-10"
    },
    {
      "name": "ALTA Owner's Policy",
      "type": "owners",
      "policyAmount": 1100000,
      "useSimultaneousRates": true,
      "useCommonEndorsements": true,
      "priorPolicyEffectiveDate": "2019-05-09",
      "priorPolicyAmount": 250000,
      "effectiveDate": "2019-05-10"
    }
  ]
}