{
      "serviceTypeId" : 1,
      "serviceVendorId" : 10,
      "quoteNumber" : "AZ-1011",
      "sessionId" : "102wzFpOcO5R6SG4g7iOF-Iog",
      "transactionFile" : {
        "transactionFileCreated" : "08/28/2020",
        "selectedAccountId" : "0a9feeb3-41d5-11e9-92a8-0242ac1b0002",
        "transactionFileType" : "Refinance",
        "occupancy" : "Second Home",
        "property" : {
          "address" : {
            "line1" : "123",
            "line2" : "",
            "city" : "Bisbee",
            "state" : "AZ",
            "zip" : "85603",
            "county" : "Cochise"
          },
          "propertyType" : "Residential",
          "isPud" : true
        },
        "reissue" : true,
        "priorPolicyAmount" : 130725,
        "endorsements" : {
          "ALTA_7" : false,
          "ALTA_8.1" : true,
          "ALTA_9" : true,
          "ALTA_22.1" : false,
          "ALTA_116.1" : false,
          "ALTA_5" : true,
          "ALTA_4" : false,
          "ALTA_6.2" : false
        },
        "loanInfo" : {
          "loanType" : "",
          "lienType" : "",
          "loanAmount" : 0,
          "loanLength" : 0,
          "downPayment" : 0,
          "salesAmount" : 0
        }
      },
      "faRequestData" : {
        "line1" : "123",
        "line2" : "",
        "state" : "AZ",
        "county" : "Cochise",
        "zip" : "85603",
        "closingState" : "AZ",
        "closingCounty" : "Cochise",
        "closingCity" : "Bisbee",
        "transactionType" : "Refinance",
        "salesAmount" : 0,
        "loanAmount" : 0,
        "effectiveDate" : "08/28/2020",
        "propertyType" : "Residential"
      },
      "ernstRequestData" : null
    }