{
  "version": "1.1.0",
  "artifactCoordinates": {
    "groupId": "3fc23611-2ee2-4256-865f-26e77080e0de",
    "artifactId": "mule-plugin-24-seven-fees-old-republic-system-api",
    "version": "1.0.4",
    "type": "jar",
    "classifier": "mule-plugin"
  },
  "dependencies": [
    {
      "artifactCoordinates": {
        "groupId": "org.mule.connectors",
        "artifactId": "mule-http-connector",
        "version": "1.5.6",
        "type": "jar",
        "classifier": "mule-plugin"
      },
      "uri": "repository/org/mule/connectors/mule-http-connector/1.5.6/mule-http-connector-1.5.6-mule-plugin.jar"
    },
    {
      "artifactCoordinates": {
        "groupId": "org.mule.connectors",
        "artifactId": "mule-sockets-connector",
        "version": "1.1.5",
        "type": "jar",
        "classifier": "mule-plugin"
      },
      "uri": "repository/org/mule/connectors/mule-sockets-connector/1.1.5/mule-sockets-connector-1.1.5-mule-plugin.jar"
    }
  ]
}